sep=,
Settled Date,Date,Order GUID,Order Type,Status,Open/Closed,Primary Currency,Volume,Outstanding,Secondary Currency,Price,Average Price,Value,Brokerage,Brokerage Fee,GST,Total Cost
25 Mar 2018 21:59,25 Mar 2018 21:50,515f097b-60c6-482f-92d7-0ca45a8724f8,Limit Sell,Filled,Closed,ETH,0.54730000,0.00000000,AUD,681.47,,372.96,1.69,0.50 %,0.16,371.10
25 Mar 2018 19:36,25 Mar 2018 19:30,683f43b7-a726-42e5-abd8-0bcb1f8a530f,Limit Sell,Filled,Closed,ETH,0.68410000,0.00000000,AUD,692.31,,473.60,2.15,0.50 %,0.21,471.24
25 Mar 2018 14:46,25 Mar 2018 14:40,8a04592f-339e-4b4e-8a50-5eb1cb3cfa5e,Limit Buy,Filled,Closed,ETH,0.20160000,0.00000000,AUD,676.11,,136.30,0.61,0.50 %,0.06,136.98
25 Mar 2018 14:18,25 Mar 2018 14:10,8bfc2d0f-6ce0-4c5e-bdba-3a232d4e75c5,Limit Buy,Partially Filled and Cancelled,Closed,ETH,0.22400000,0.11262620,AUD,676.31,,75.32,0.34,0.50 %,0.03,75.69
24 Mar 2018 02:51,24 Mar 2018 02:50,b3a6d9ae-99c3-47e9-9744-00cf530a89ed,Limit Sell,Filled,Closed,ETH,0.77680000,0.00000000,AUD,690.47,,536.35,2.43,0.50 %,0.24,533.67
24 Mar 2018 00:43,24 Mar 2018 00:40,7690f098-0166-402a-ab53-62ba6bffb9c2,Limit Buy,Filled,Closed,ETH,0.08350000,0.00000000,AUD,670.18,,55.96,0.25,0.50 %,0.02,56.23
23 Mar 2018 20:29,23 Mar 2018 20:22,57eb8b02-e072-4816-bc8c-1e3fa1f92570,Limit Buy,Filled,Closed,ETH,0.10460000,0.00000000,AUD,670.21,,70.10,0.31,0.50 %,0.03,70.45
23 Mar 2018 20:15,23 Mar 2018 20:11,687e0c32-d908-482b-8e5f-355a548944ef,Limit Buy,Filled,Closed,ETH,0.13020000,0.00000000,AUD,673.60,,87.70,0.39,0.50 %,0.03,88.14
23 Mar 2018 17:40,23 Mar 2018 17:40,592f87da-0d4d-480e-81a0-36c22e62d4f6,Limit Buy,Filled,Closed,ETH,0.16540000,0.00000000,AUD,663.89,,109.80,0.49,0.50 %,0.04,110.35
23 Mar 2018 17:28,23 Mar 2018 17:20,95652c64-adef-442f-a5b4-a397d969ab63,Limit Buy,Filled,Closed,ETH,0.20680000,0.00000000,AUD,664.30,,137.37,0.62,0.50 %,0.06,138.06
23 Mar 2018 17:06,23 Mar 2018 17:00,b0763ffb-9960-4bf3-8ea9-737368d943f1,Limit Buy,Filled,Closed,ETH,0.25770000,0.00000000,AUD,667.14,,171.92,0.78,0.50 %,0.07,172.78
23 Mar 2018 16:30,23 Mar 2018 16:30,c06f5797-7604-4e12-a779-c628cea118ad,Limit Buy,Filled,Closed,ETH,0.31950000,0.00000000,AUD,673.51,,215.18,0.97,0.50 %,0.09,216.26
23 Mar 2018 16:29,23 Mar 2018 16:20,9ef0349e-b2d6-4088-b60d-8cce175ff992,Limit Buy,Filled,Closed,ETH,0.24880000,0.00000000,AUD,675.11,,167.96,0.76,0.50 %,0.07,168.80
23 Mar 2018 16:28,23 Mar 2018 16:20,c67478c9-35ab-4f25-b5ec-333ec3501599,Limit Sell,Filled,Closed,ETH,0.59190000,0.00000000,AUD,687.67,,407.03,1.85,0.50 %,0.18,404.99
23 Mar 2018 13:34,23 Mar 2018 13:31,49ccda26-180d-4169-82e0-13c82132f535,Limit Buy,Filled,Closed,ETH,0.31600000,0.00000000,AUD,665.11,,210.17,0.95,0.50 %,0.09,211.22
23 Mar 2018 12:38,23 Mar 2018 12:30,bc2d5a9e-deb6-47dd-b098-afaf4439fb55,Limit Buy,Filled,Closed,ETH,0.38970000,0.00000000,AUD,675.11,,263.09,1.19,0.50 %,0.11,264.40
23 Mar 2018 12:29,23 Mar 2018 12:20,dbff3e4c-6995-4e9b-8de7-305dbcf631d2,Limit Buy,Filled,Closed,ETH,0.48730000,0.00000000,AUD,675.64,,329.23,1.49,0.50 %,0.14,330.88
23 Mar 2018 12:15,23 Mar 2018 12:10,3c1274e1-1d88-4440-b0d0-eab1ce4b796c,Limit Buy,Filled,Closed,ETH,0.59720000,0.00000000,AUD,690.01,,412.07,1.87,0.50 %,0.18,414.13
23 Mar 2018 11:37,23 Mar 2018 11:30,b82bbe53-efa1-4cbb-96d4-2de3f03cd934,Limit Sell,Filled,Closed,ETH,0.29240000,0.00000000,AUD,701.50,,205.11,0.93,0.50 %,0.09,204.09
23 Mar 2018 07:12,23 Mar 2018 07:10,caf667f4-72e2-457a-aeb3-c481ec2b6eb9,Limit Sell,Filled,Closed,ETH,0.36540000,0.00000000,AUD,696.73,,254.58,1.15,0.50 %,0.11,253.31
23 Mar 2018 04:36,23 Mar 2018 04:30,5b78ace7-7343-4db6-808d-6d8350384415,Limit Buy,Filled,Closed,ETH,0.57940000,0.00000000,AUD,692.52,,401.24,1.82,0.50 %,0.18,403.25
23 Mar 2018 02:06,23 Mar 2018 01:43,3eff8dde-874a-4903-8bbf-201a0d640f2c,Limit Sell,Filled,Closed,ETH,0.31200000,0.00000000,AUD,697.89,,217.74,0.98,0.50 %,0.09,216.65
23 Mar 2018 00:01,23 Mar 2018 00:00,68d0aa06-078b-4806-9c13-23ecfdcbb2cc,Limit Sell,Filled,Closed,ETH,0.38990000,0.00000000,AUD,702.22,,273.79,1.24,0.50 %,0.12,272.42
22 Mar 2018 20:28,22 Mar 2018 20:21,d71641e3-1f51-4f07-aa2a-37ad484a55fd,Limit Buy,Filled,Closed,ETH,0.54070000,0.00000000,AUD,702.36,,379.76,1.72,0.50 %,0.17,381.66
22 Mar 2018 20:05,22 Mar 2018 20:01,c9d5d76d-0930-466c-b536-bf2d7a2e72ac,Limit Buy,Filled,Closed,ETH,0.66850000,0.00000000,AUD,711.01,,475.31,2.16,0.50 %,0.21,477.68
22 Mar 2018 18:42,22 Mar 2018 18:40,56a13300-3147-4316-9df9-5d675fc18646,Limit Sell,Filled,Closed,ETH,0.18510000,0.00000000,AUD,747.84,,138.42,0.62,0.50 %,0.06,137.73
22 Mar 2018 07:07,22 Mar 2018 07:00,7e41fd9f-99b2-463f-b2da-d890c4af43e2,Limit Sell,Filled,Closed,ETH,0.23140000,0.00000000,AUD,739.46,,171.11,0.77,0.50 %,0.07,170.25
22 Mar 2018 06:35,22 Mar 2018 06:30,a15321a6-5ffc-4cf4-a6ed-785a58eec5c2,Limit Sell,Filled,Closed,ETH,0.28930000,0.00000000,AUD,740.58,,214.24,0.97,0.50 %,0.09,213.17
22 Mar 2018 06:27,22 Mar 2018 06:22,e27424de-40a6-4fc1-a470-39a76331996a,Limit Sell,Filled,Closed,ETH,0.36160000,0.00000000,AUD,737.89,,266.82,1.21,0.50 %,0.12,265.48
22 Mar 2018 05:27,22 Mar 2018 05:20,98e458f1-c5ba-4f57-8d7e-c69230ad458c,Limit Sell,Filled,Closed,ETH,0.45200000,0.00000000,AUD,738.79,,333.93,1.51,0.50 %,0.15,332.26
22 Mar 2018 03:57,22 Mar 2018 03:50,4005f71d-de21-4621-8466-e8cbd1eb43a0,Limit Sell,Filled,Closed,ETH,0.56500000,0.00000000,AUD,722.45,,408.18,1.85,0.50 %,0.18,406.14
22 Mar 2018 02:00,22 Mar 2018 01:50,80682f50-9017-44f4-b1f8-cbf7467a9de6,Limit Buy,Partially Filled and Cancelled,Closed,ETH,0.22760000,0.21760002,AUD,755.01,,7.55,0.03,0.50 %,0.00,7.58
22 Mar 2018 01:49,22 Mar 2018 01:42,a1ec7611-337a-467e-bb94-2cedb5f9b929,Limit Buy,Filled,Closed,ETH,0.28380000,0.00000000,AUD,757.55,,214.99,0.97,0.50 %,0.09,216.06
21 Mar 2018 19:36,21 Mar 2018 19:30,1bdbe5cc-ceb8-4e43-a97b-758cd92d700e,Limit Buy,Filled,Closed,ETH,0.36070000,0.00000000,AUD,746.12,,269.12,1.22,0.50 %,0.12,270.47
21 Mar 2018 18:40,21 Mar 2018 18:40,5a76872c-51e3-475b-a74a-5f4962e784f6,Limit Buy,Filled,Closed,ETH,0.45150000,0.00000000,AUD,746.01,,336.82,1.53,0.50 %,0.15,338.50
21 Mar 2018 18:04,21 Mar 2018 18:00,c2dace5b-f5fd-4b9c-b6fc-b4a8d1d8d9c5,Limit Buy,Filled,Closed,ETH,0.56700000,0.00000000,AUD,743.50,,421.56,1.91,0.50 %,0.19,423.67
21 Mar 2018 14:38,21 Mar 2018 14:30,bd37d668-8b29-46c6-b517-2dc87ecfb34c,Limit Buy,Filled,Closed,ETH,0.68870000,0.00000000,AUD,766.09,,527.60,2.39,0.50 %,0.23,530.24
21 Mar 2018 14:24,21 Mar 2018 14:20,dd3725b8-3d9b-4253-83fe-4aff7f89c3c5,Limit Sell,Filled,Closed,ETH,0.11580000,0.00000000,AUD,771.65,,89.35,0.40,0.50 %,0.04,88.91
21 Mar 2018 09:33,21 Mar 2018 09:30,34aa5971-4037-40bf-83da-17c2e34fd343,Limit Sell,Filled,Closed,ETH,0.14480000,0.00000000,AUD,739.88,,107.13,0.48,0.50 %,0.04,106.59
21 Mar 2018 07:24,21 Mar 2018 07:20,7ce1bdac-f8fb-4411-beb7-d839cc870928,Limit Sell,Filled,Closed,ETH,0.18090000,0.00000000,AUD,744.00,,134.58,0.61,0.50 %,0.06,133.91
20 Mar 2018 21:27,20 Mar 2018 21:20,ddba3de6-b791-4f11-8dc8-5a789c0e371c,Limit Sell,Filled,Closed,ETH,0.22620000,0.00000000,AUD,699.89,,158.31,0.71,0.50 %,0.07,157.52
20 Mar 2018 19:45,20 Mar 2018 19:41,77e5b453-38ae-4d26-b8a3-e338e4a3d6a7,Limit Sell,Filled,Closed,ETH,0.28270000,0.00000000,AUD,695.60,,196.64,0.89,0.50 %,0.08,195.66
20 Mar 2018 19:23,20 Mar 2018 19:20,f2b0c27d-0990-4c33-91e8-876b6f5523e9,Limit Sell,Filled,Closed,ETH,0.35340000,0.00000000,AUD,690.58,,244.05,1.10,0.50 %,0.11,242.83
20 Mar 2018 18:16,20 Mar 2018 18:10,be238ab4-c7c6-4627-b597-aef734e28aca,Limit Sell,Filled,Closed,ETH,0.44170000,0.00000000,AUD,692.93,,306.06,1.39,0.50 %,0.13,304.53
20 Mar 2018 18:08,20 Mar 2018 18:00,d78105f6-94b8-4dd1-8b70-64c65ff9c6f4,Limit Buy,Filled,Closed,ETH,0.51450000,0.00000000,AUD,685.02,,352.44,1.60,0.50 %,0.16,354.20
20 Mar 2018 17:47,20 Mar 2018 17:40,ec061448-f9c8-4592-a55a-54f3d2de00f1,Limit Sell,Partially Filled and Cancelled,Closed,ETH,0.37440000,0.19640000,AUD,706.07,,125.68,0.57,0.50 %,0.05,125.05
20 Mar 2018 14:41,20 Mar 2018 14:40,f0748f41-a3fe-45bd-b23d-1fb4f256fa55,Limit Sell,Filled,Closed,ETH,0.46810000,0.00000000,AUD,708.38,,331.59,1.50,0.50 %,0.15,329.93
20 Mar 2018 13:20,20 Mar 2018 13:20,848ba0d9-5f4b-4d76-8513-b5001bca8e38,Limit Sell,Filled,Closed,ETH,0.58510000,0.00000000,AUD,729.99,,427.11,1.94,0.50 %,0.19,424.98
20 Mar 2018 11:15,20 Mar 2018 11:10,12e61432-c2ce-4200-a4ba-432c4c546138,Limit Buy,Filled,Closed,ETH,0.31000000,0.00000000,AUD,712.52,,220.88,1.00,0.50 %,0.10,221.98
20 Mar 2018 09:36,20 Mar 2018 09:30,ead6b37b-c9bf-48c1-a2d4-4cb731fa4869,Limit Buy,Filled,Closed,ETH,0.38930000,0.00000000,AUD,710.00,,276.40,1.25,0.50 %,0.12,277.78
20 Mar 2018 09:15,20 Mar 2018 09:10,477ec0f8-e97c-4ea5-9c34-823b8eb31636,Limit Sell,Filled,Closed,ETH,0.55650000,0.00000000,AUD,714.69,,397.72,1.80,0.50 %,0.18,395.73
20 Mar 2018 08:38,20 Mar 2018 08:30,7e8514e5-ed74-46e6-a08d-830c140e7732,Limit Sell,Filled,Closed,ETH,0.69570000,0.00000000,AUD,717.45,,499.12,2.26,0.50 %,0.22,496.63
20 Mar 2018 07:30,20 Mar 2018 07:30,3c41eee2-d324-43f0-86df-05bec646fcfc,Limit Buy,Filled,Closed,ETH,0.17510000,0.00000000,AUD,700.08,,122.58,0.55,0.50 %,0.05,123.19
20 Mar 2018 05:09,20 Mar 2018 05:00,49a01143-1802-4676-ab5d-178c08b077fb,Limit Sell,Filled,Closed,ETH,0.82580000,0.00000000,AUD,703.81,,581.20,2.64,0.50 %,0.26,578.30
20 Mar 2018 04:04,20 Mar 2018 04:04,5273651b-2b9f-4d9f-ab03-16d74fbd16ae,Limit Buy,Filled,Closed,ETH,0.18160000,0.00000000,AUD,685.84,,124.54,0.56,0.50 %,0.05,125.17
20 Mar 2018 04:04,20 Mar 2018 03:51,d75693f1-3c8d-4faa-a24c-8d5ef4bcc5ae,Limit Buy,Filled,Closed,ETH,0.22650000,0.00000000,AUD,688.30,,155.89,0.70,0.50 %,0.07,156.67
20 Mar 2018 04:15,20 Mar 2018 03:51,09d9ca32-5be9-4146-afc7-2bd89ce1ea35,Limit Sell,Partially Filled and Cancelled,Closed,ETH,0.61040000,0.60040000,AUD,703.85,,7.03,0.03,0.50 %,0.00,7.00
20 Mar 2018 04:04,20 Mar 2018 03:44,91c81c00-9b1c-43ad-9721-d8c9059c7ce9,Limit Buy,Filled,Closed,ETH,0.22670000,0.00000000,AUD,687.52,,155.86,0.70,0.50 %,0.07,156.64
20 Mar 2018 04:04,20 Mar 2018 03:43,226283c1-3af7-40a5-aa38-a1093a517dba,Limit Buy,Filled,Closed,ETH,0.22670000,0.00000000,AUD,687.64,,155.88,0.70,0.50 %,0.07,156.66
20 Mar 2018 04:04,20 Mar 2018 03:43,406cf954-da4a-4c0e-9bf4-2cf048cc3810,Limit Buy,Filled,Closed,ETH,0.22530000,0.00000000,AUD,691.88,,155.88,0.70,0.50 %,0.07,156.65
20 Mar 2018 02:59,20 Mar 2018 02:50,194b41a0-96a8-4d87-888d-6634b41c6379,Limit Buy,Filled,Closed,ETH,0.27320000,0.00000000,AUD,714.10,,195.09,0.88,0.50 %,0.08,196.06
19 Mar 2018 23:44,19 Mar 2018 23:40,f3109cd7-5bfb-44d4-82fe-e7da588acb75,Limit Sell,Filled,Closed,ETH,0.69480000,0.00000000,AUD,707.68,,491.69,2.23,0.50 %,0.22,489.23
19 Mar 2018 22:11,19 Mar 2018 22:10,c213005e-21e2-498d-8125-66405bd40644,Limit Buy,Partially Filled and Cancelled,Closed,ETH,0.14340000,0.14088362,AUD,680.79,,1.71,0.00,0.50 %,0.00,1.72
19 Mar 2018 20:07,19 Mar 2018 20:03,ecc7f372-16fd-4494-a5e5-545867b5adb9,Limit Buy,Filled,Closed,ETH,0.17930000,0.00000000,AUD,681.45,,122.18,0.55,0.50 %,0.05,122.79
19 Mar 2018 19:06,19 Mar 2018 19:00,deb0b085-e42a-4731-b9e3-ba3b705a0e52,Limit Buy,Filled,Closed,ETH,0.21620000,0.00000000,AUD,707.03,,152.85,0.69,0.50 %,0.06,153.62
19 Mar 2018 15:17,19 Mar 2018 15:10,8f281896-5989-48f4-b821-9b9322801d74,Limit Sell,Partially Filled and Cancelled,Closed,ETH,0.69520000,0.29520000,AUD,705.67,,282.26,1.28,0.50 %,0.12,280.85
19 Mar 2018 12:09,19 Mar 2018 12:00,948aebdc-0f80-4479-945a-f05fecc06707,Limit Buy,Filled,Closed,ETH,0.17580000,0.00000000,AUD,688.43,,121.02,0.55,0.50 %,0.05,121.63
19 Mar 2018 11:52,19 Mar 2018 11:50,987f61be-16ff-4797-a70d-4249a7ce0f9c,Limit Buy,Filled,Closed,ETH,0.29710000,0.00000000,AUD,681.14,,202.36,0.91,0.50 %,0.09,203.37
19 Mar 2018 11:52,19 Mar 2018 11:50,a425eddc-a199-49a5-a24b-402f890ccf75,Limit Buy,Filled,Closed,ETH,0.29720000,0.00000000,AUD,681.02,,202.39,0.91,0.50 %,0.09,203.41
19 Mar 2018 11:27,19 Mar 2018 11:20,5e06d649-b807-4db9-ac44-9afcf359e83e,Limit Buy,Filled,Closed,ETH,0.36960000,0.00000000,AUD,685.47,,253.34,1.15,0.50 %,0.11,254.61
19 Mar 2018 11:09,19 Mar 2018 11:00,e5ecacca-a73d-4577-9375-745d218626ad,Limit Buy,Filled,Closed,ETH,0.44570000,0.00000000,AUD,711.30,,317.02,1.44,0.50 %,0.14,318.61
19 Mar 2018 10:54,19 Mar 2018 10:50,977629dc-c930-4221-961e-bd9cbe4219d9,Limit Buy,Filled,Closed,ETH,0.55580000,0.00000000,AUD,713.86,,396.76,1.80,0.50 %,0.18,398.74
19 Mar 2018 10:07,19 Mar 2018 10:00,9cd3173b-d865-4132-8a9a-862f184ec352,Limit Sell,Filled,Closed,ETH,0.33360000,0.00000000,AUD,717.42,,239.33,1.08,0.50 %,0.10,238.13
19 Mar 2018 09:40,19 Mar 2018 09:40,fed6d43c-8d9d-4070-935c-c3a3dc545049,Limit Sell,Filled,Closed,ETH,0.41710000,0.00000000,AUD,717.53,,299.28,1.36,0.50 %,0.13,297.78
19 Mar 2018 08:15,19 Mar 2018 08:10,55dd20ba-14d1-4aae-9fd4-88d1aaaeecaa,Limit Buy,Filled,Closed,ETH,0.51390000,0.00000000,AUD,705.36,,362.48,1.64,0.50 %,0.16,364.29
19 Mar 2018 07:56,19 Mar 2018 07:50,7a652cbf-b5f4-4b3e-bf4b-3c34b1b549f8,Limit Sell,Filled,Closed,ETH,0.39290000,0.00000000,AUD,720.88,,283.23,1.28,0.50 %,0.12,281.81
19 Mar 2018 07:20,19 Mar 2018 07:20,67aeb693-7dc2-4c1f-8afc-8726997db0b1,Limit Buy,Filled,Closed,ETH,0.55160000,0.00000000,AUD,694.49,,383.08,1.74,0.50 %,0.17,384.99
19 Mar 2018 07:14,19 Mar 2018 07:10,2641beb9-dada-49d0-830c-712ba186c0a6,Limit Sell,Filled,Closed,ETH,0.35320000,0.00000000,AUD,682.39,,241.02,1.09,0.50 %,0.10,239.81
19 Mar 2018 07:06,19 Mar 2018 07:00,32268e6c-874f-494a-bffc-a627c3984c4e,Limit Sell,Filled,Closed,ETH,0.44150000,0.00000000,AUD,668.75,,295.25,1.34,0.50 %,0.13,293.77
19 Mar 2018 06:23,19 Mar 2018 06:21,d2c77432-2795-42fd-bb46-de02f3fc7b02,Limit Sell,Filled,Closed,ETH,0.55190000,0.00000000,AUD,643.96,,355.40,1.61,0.50 %,0.16,353.62
19 Mar 2018 05:48,19 Mar 2018 05:40,5aebe4af-8655-4df8-a857-fe2e946f9cff,Limit Buy,Filled,Closed,ETH,0.40660000,0.00000000,AUD,633.10,,257.41,1.17,0.50 %,0.11,258.70
19 Mar 2018 05:19,19 Mar 2018 05:10,0e47fd5b-ebcc-4f54-8d88-d4528b3a94d3,Limit Sell,Filled,Closed,ETH,0.58820000,0.00000000,AUD,626.27,,368.37,1.67,0.50 %,0.16,366.53
19 Mar 2018 05:09,19 Mar 2018 05:00,7d820ea0-3bae-4464-802a-8ecdc211f61c,Limit Buy,Filled,Closed,ETH,0.37090000,0.00000000,AUD,621.29,,230.43,1.04,0.50 %,0.10,231.58
19 Mar 2018 04:53,19 Mar 2018 04:50,6ffff081-2d08-4235-93bb-ce0cfe4d8839,Limit Buy,Filled,Closed,ETH,0.45310000,0.00000000,AUD,636.43,,288.36,1.31,0.50 %,0.13,289.80
19 Mar 2018 02:38,19 Mar 2018 02:30,972330e7-f4f5-4198-8216-690e227a93e7,Limit Sell,Filled,Closed,ETH,0.52920000,0.00000000,AUD,614.85,,325.37,1.47,0.50 %,0.14,323.75
19 Mar 2018 00:44,19 Mar 2018 00:40,8e55eb76-aae9-42ca-962e-26999455db4b,Limit Sell,Filled,Closed,ETH,0.66150000,0.00000000,AUD,619.02,,409.48,1.86,0.50 %,0.18,407.43
19 Mar 2018 00:08,19 Mar 2018 00:01,8e5e3cba-accd-4f74-882f-58c9f6691b48,Limit Buy,Filled,Closed,ETH,0.28460000,0.00000000,AUD,625.01,,177.87,0.80,0.50 %,0.08,178.76
18 Mar 2018 21:59,18 Mar 2018 21:50,ce6b3186-f0ec-46c4-8251-a6fcd58023c4,Limit Sell,Partially Filled and Cancelled,Closed,ETH,0.64460000,0.44460000,AUD,680.79,,136.15,0.61,0.50 %,0.06,135.47
18 Mar 2018 20:51,18 Mar 2018 20:50,9609eaee-553b-4977-b8fb-62ed6001bf65,Limit Sell,Filled,Closed,ETH,0.80580000,0.00000000,AUD,656.87,,529.30,2.40,0.50 %,0.24,526.65
18 Mar 2018 19:57,18 Mar 2018 19:52,cc084ddc-0f72-4656-a811-d5c5b7eead1b,Limit Buy,Filled,Closed,ETH,0.08610000,0.00000000,AUD,661.03,,56.91,0.25,0.50 %,0.02,57.19
18 Mar 2018 16:29,18 Mar 2018 16:21,d5ea6313-84d3-4e77-8080-58f20809427f,Limit Buy,Filled,Closed,ETH,0.10580000,0.00000000,AUD,673.22,,71.22,0.32,0.50 %,0.03,71.58
18 Mar 2018 15:16,18 Mar 2018 15:11,f7ebf203-e3e8-4aa4-94ed-ec78eebfe865,Limit Buy,Filled,Closed,ETH,0.13370000,0.00000000,AUD,666.40,,89.09,0.40,0.50 %,0.04,89.54
18 Mar 2018 14:56,18 Mar 2018 14:51,e06b65d6-2dc6-49b6-9a85-c570ba003597,Limit Buy,Filled,Closed,ETH,0.16900000,0.00000000,AUD,660.21,,111.57,0.50,0.50 %,0.05,112.13
18 Mar 2018 14:48,18 Mar 2018 14:40,ae44a4df-da67-44a0-bb0a-a0d1e4cae987,Limit Buy,Filled,Closed,ETH,0.20950000,0.00000000,AUD,666.52,,139.63,0.63,0.50 %,0.06,140.33
18 Mar 2018 13:35,18 Mar 2018 13:30,f3b06623-6d95-4772-8344-e5fd1a81fe0b,Limit Buy,Filled,Closed,ETH,0.26230000,0.00000000,AUD,666.31,,174.77,0.79,0.50 %,0.07,175.64
18 Mar 2018 13:16,18 Mar 2018 13:10,2ac6c921-e545-4c05-bf2f-a725ebb0fc25,Limit Buy,Partially Filled and Cancelled,Closed,ETH,0.26290000,0.26220870,AUD,665.12,,0.45,0.00,0.50 %,0.00,0.46
18 Mar 2018 12:35,18 Mar 2018 12:30,06c46712-801f-412f-8d3b-3fe252e54a58,Limit Buy,Filled,Closed,ETH,0.32710000,0.00000000,AUD,669.01,,218.83,0.99,0.50 %,0.09,219.92
18 Mar 2018 11:02,18 Mar 2018 11:00,4b569e8c-2712-4726-bac8-b94611503bcb,Limit Sell,Filled,Closed,ETH,0.68370000,0.00000000,AUD,697.95,,477.18,2.16,0.50 %,0.21,474.80
18 Mar 2018 08:14,18 Mar 2018 08:10,a042d558-795e-492b-9d57-e50cb3a719ca,Limit Buy,Filled,Closed,ETH,0.21630000,0.00000000,AUD,716.56,,154.99,0.70,0.50 %,0.07,155.76
18 Mar 2018 07:13,18 Mar 2018 07:10,102ad22d-58c6-4d44-bc82-fe7e6ee14108,Limit Buy,Filled,Closed,ETH,0.27080000,0.00000000,AUD,716.31,,193.97,0.88,0.50 %,0.08,194.94
18 Mar 2018 06:08,18 Mar 2018 06:00,3d23ffee-654e-48d4-81d6-94bcfce51385,Limit Buy,Filled,Closed,ETH,0.34010000,0.00000000,AUD,714.01,,242.83,1.10,0.50 %,0.11,244.04
18 Mar 2018 02:43,18 Mar 2018 02:40,a1b980f7-35da-4f2d-8340-926541d1ddb6,Limit Buy,Filled,Closed,ETH,0.40840000,0.00000000,AUD,744.14,,303.90,1.38,0.50 %,0.13,305.42
17 Mar 2018 02:18,17 Mar 2018 02:10,925b62f2-7d87-46b3-9c23-7f47ffc9e21c,Limit Buy,Filled,Closed,ETH,0.47930000,0.00000000,AUD,793.56,,380.35,1.72,0.50 %,0.17,382.25
17 Mar 2018 00:15,17 Mar 2018 00:10,d9d5ecea-6c9f-4269-a6f4-0f4c87ffbcb9,Limit Buy,Partially Filled and Cancelled,Closed,ETH,0.52600000,0.30145000,AUD,791.02,,177.62,0.80,0.50 %,0.08,178.51
16 Mar 2018 23:28,16 Mar 2018 23:20,685c50f6-5576-4563-9b11-c620ca211a15,Limit Sell,Filled,Closed,ETH,0.36970000,0.00000000,AUD,789.77,,291.97,1.32,0.50 %,0.13,290.51
16 Mar 2018 09:12,16 Mar 2018 09:10,451561bf-e84b-4704-9e0a-28e5a2c3fdea,Limit Sell,Partially Filled and Cancelled,Closed,ETH,0.37200000,0.36030113,AUD,801.71,,9.37,0.04,0.50 %,0.00,9.33
16 Mar 2018 08:57,16 Mar 2018 08:50,98ef3474-eaa0-4e6a-84a5-0fa35fa954c9,Limit Sell,Filled,Closed,ETH,0.46510000,0.00000000,AUD,798.72,,371.48,1.68,0.50 %,0.16,369.62
16 Mar 2018 07:32,16 Mar 2018 07:30,90e0626a-1209-4e3c-9606-4971d053720a,Limit Sell,Filled,Closed,ETH,0.58130000,0.00000000,AUD,788.68,,458.45,2.08,0.50 %,0.20,456.16
16 Mar 2018 07:16,16 Mar 2018 07:10,8056602d-b3ef-418d-9256-5589f877ae8c,Limit Sell,Partially Filled and Cancelled,Closed,ETH,0.65700000,0.27880000,AUD,786.93,,297.61,1.35,0.50 %,0.13,296.12
16 Mar 2018 04:55,16 Mar 2018 04:51,cef906ce-511c-4869-89de-47fb3f753d50,Limit Sell,Filled,Closed,ETH,0.82120000,0.00000000,AUD,774.49,,636.01,2.89,0.50 %,0.28,632.83
15 Mar 2018 07:21,15 Mar 2018 06:41,6847e929-3db8-4b18-8bcf-b2c972298301,Limit Buy,Filled,Closed,ETH,0.01100000,0.00000000,AUD,777.28,,8.55,0.03,0.50 %,0.00,8.59
15 Mar 2018 07:21,15 Mar 2018 06:41,e7c940e9-7e83-42a1-9646-e63c63ce572c,Limit Buy,Filled,Closed,ETH,0.01100000,0.00000000,AUD,777.56,,8.55,0.03,0.50 %,0.00,8.59
13 Mar 2018 18:24,13 Mar 2018 18:20,aba52ecd-cf82-4fcb-9780-b646dbc3a418,Limit Buy,Filled,Closed,ETH,0.01220000,0.00000000,AUD,881.34,,10.75,0.04,0.50 %,0.00,10.80
13 Mar 2018 18:18,13 Mar 2018 18:10,8bd7f0d9-c359-4405-8dee-8463ac173947,Limit Buy,Filled,Closed,ETH,0.01510000,0.00000000,AUD,886.02,,13.37,0.06,0.50 %,0.00,13.44
13 Mar 2018 18:09,13 Mar 2018 18:00,b77cc89e-7729-4658-94ee-ecf0b3184c68,Limit Buy,Filled,Closed,ETH,0.01880000,0.00000000,AUD,890.13,,16.73,0.07,0.50 %,0.00,16.81
13 Mar 2018 13:17,13 Mar 2018 13:10,3a0aa641-7de6-4a9a-8c92-6c9685163c36,Limit Buy,Filled,Closed,ETH,0.02380000,0.00000000,AUD,881.35,,20.97,0.09,0.50 %,0.00,21.08
13 Mar 2018 13:02,13 Mar 2018 13:00,778cc21f-0701-46bb-bfae-39a247dabd5c,Limit Buy,Filled,Closed,ETH,0.02980000,0.00000000,AUD,882.83,,26.30,0.11,0.50 %,0.01,26.43
13 Mar 2018 12:03,13 Mar 2018 12:00,c78dd357-2dba-46e8-9138-77fdc152ecbb,Limit Sell,Partially Filled and Cancelled,Closed,ETH,0.21830000,0.11135885,AUD,898.99,,96.13,0.43,0.50 %,0.04,95.65
13 Mar 2018 11:58,13 Mar 2018 11:50,ea24d2ff-7831-4987-96e0-e45085df9a6a,Limit Buy,Filled,Closed,ETH,0.01010000,0.00000000,AUD,885.01,,8.93,0.04,0.50 %,0.00,8.98
13 Mar 2018 07:19,13 Mar 2018 07:18,1e696650-7161-4913-90c1-c5ae2414ea07,Limit Buy,Filled,Closed,ETH,0.01280000,0.00000000,AUD,876.64,,11.22,0.05,0.50 %,0.00,11.27
13 Mar 2018 05:02,13 Mar 2018 05:00,de190aca-c4d0-4145-98e8-099ae5350dfb,Limit Buy,Filled,Closed,ETH,0.01590000,0.00000000,AUD,880.39,,13.99,0.06,0.50 %,0.00,14.06
13 Mar 2018 04:54,13 Mar 2018 04:50,25bb07e8-5178-41aa-9d22-565bcf647466,Limit Buy,Filled,Closed,ETH,0.01990000,0.00000000,AUD,880.39,,17.51,0.07,0.50 %,0.00,17.60
13 Mar 2018 02:43,13 Mar 2018 02:40,d79ca027-3de0-498e-accb-7c7ca3c32028,Limit Buy,Filled,Closed,ETH,0.02490000,0.00000000,AUD,880.13,,21.91,0.09,0.50 %,0.00,22.02
13 Mar 2018 02:04,13 Mar 2018 02:00,73179794-cef7-47d1-8504-82c9662796dc,Limit Buy,Filled,Closed,ETH,0.03100000,0.00000000,AUD,884.13,,27.40,0.12,0.50 %,0.01,27.54
13 Mar 2018 01:33,13 Mar 2018 01:30,1dca5900-d981-4172-9ff5-bedb9fe6c26d,Limit Buy,Filled,Closed,ETH,0.03840000,0.00000000,AUD,895.01,,34.36,0.15,0.50 %,0.01,34.54
13 Mar 2018 00:29,13 Mar 2018 00:20,e6e6eff8-b505-44a1-ac7d-67d541e475ff,Limit Buy,Filled,Closed,ETH,0.04730000,0.00000000,AUD,910.20,,43.05,0.19,0.50 %,0.01,43.26
12 Mar 2018 20:58,12 Mar 2018 20:50,73a8a5af-2bc9-4274-af9c-78ad4441a39c,Limit Buy,Filled,Closed,ETH,0.05780000,0.00000000,AUD,931.10,,53.81,0.24,0.50 %,0.02,54.08
12 Mar 2018 17:54,12 Mar 2018 17:50,45afa4ad-e6fc-4469-857c-6441be9c8603,Limit Buy,Filled,Closed,ETH,0.07300000,0.00000000,AUD,922.22,,67.32,0.30,0.50 %,0.03,67.65
12 Mar 2018 17:34,12 Mar 2018 17:30,d1fa1ae8-0476-4f01-89b4-e5db89bfc629,Limit Buy,Filled,Closed,ETH,0.12220000,0.00000000,AUD,921.38,,112.59,0.51,0.50 %,0.05,113.15
12 Mar 2018 17:34,12 Mar 2018 17:30,93ffad86-5c85-4a52-9dcb-972224545e5b,Limit Buy,Filled,Closed,ETH,0.12230000,0.00000000,AUD,921.17,,112.65,0.51,0.50 %,0.05,113.22
12 Mar 2018 10:25,12 Mar 2018 10:20,ad8f7e2d-9d46-4a91-a12d-5384cc0d3cb3,Limit Buy,Partially Filled and Cancelled,Closed,ETH,0.12870000,0.09590917,AUD,922.10,,30.23,0.13,0.50 %,0.01,30.38
12 Mar 2018 10:12,12 Mar 2018 10:10,a1bab6cc-0dc9-4f3c-9225-89dc068a0fd9,Limit Buy,Filled,Closed,ETH,0.16110000,0.00000000,AUD,922.42,,148.60,0.67,0.50 %,0.06,149.34
12 Mar 2018 09:23,12 Mar 2018 09:22,094aeb15-6b13-4575-bb3d-09c5d0f3b322,Limit Sell,Filled,Closed,ETH,0.08050000,0.00000000,AUD,939.06,,75.59,0.34,0.50 %,0.03,75.21
12 Mar 2018 05:33,12 Mar 2018 05:30,c4ea534f-aba5-4924-8b41-324e2258287b,Limit Buy,Filled,Closed,ETH,0.18010000,0.00000000,AUD,928.18,,167.16,0.75,0.50 %,0.07,168.00
11 Mar 2018 21:47,11 Mar 2018 21:41,6e8307f6-7c98-46b9-a06a-7440cfb27480,Limit Sell,Filled,Closed,ETH,0.05560000,0.00000000,AUD,921.77,,51.25,0.23,0.50 %,0.02,50.99
11 Mar 2018 21:35,11 Mar 2018 21:30,db62dfb0-1c7b-4b7f-97d3-6d2b95e8f18a,Limit Sell,Filled,Closed,ETH,0.06950000,0.00000000,AUD,899.36,,62.50,0.28,0.50 %,0.02,62.19
11 Mar 2018 20:06,11 Mar 2018 20:00,e77a2d2f-5aea-4a0f-9deb-0c463e90679f,Limit Sell,Filled,Closed,ETH,0.08680000,0.00000000,AUD,901.40,,78.24,0.35,0.50 %,0.03,77.85
11 Mar 2018 10:34,11 Mar 2018 10:30,f436af38-cbb2-4ce7-84a1-68444f6a6043,Limit Buy,Filled,Closed,ETH,0.18910000,0.00000000,AUD,853.31,,161.36,0.73,0.50 %,0.07,162.16
11 Mar 2018 07:43,11 Mar 2018 07:40,3ad465d6-f7f0-4a73-8ec1-40af9897ce18,Limit Sell,Filled,Closed,ETH,0.06130000,0.00000000,AUD,897.66,,55.02,0.25,0.50 %,0.02,54.75
11 Mar 2018 01:19,11 Mar 2018 01:10,b99d29ce-8444-40db-8517-98de887adb6a,Limit Sell,Filled,Closed,ETH,0.07660000,0.00000000,AUD,965.12,,73.92,0.33,0.50 %,0.03,73.55
11 Mar 2018 00:39,11 Mar 2018 00:30,172344cd-b0b7-4357-829d-293994869392,Limit Buy,Filled,Closed,ETH,0.17910000,0.00000000,AUD,948.40,,169.85,0.77,0.50 %,0.07,170.70
10 Mar 2018 20:21,10 Mar 2018 20:20,3955b6c3-d284-407f-86ee-7f4cdde4fc94,Limit Sell,Filled,Closed,ETH,0.05090000,0.00000000,AUD,965.16,,49.12,0.22,0.50 %,0.02,48.88
10 Mar 2018 19:44,10 Mar 2018 19:40,a98a63e0-45f8-41be-9418-07785d7674f0,Limit Buy,Filled,Closed,ETH,0.21420000,0.00000000,AUD,935.13,,200.30,0.91,0.50 %,0.09,201.30
10 Mar 2018 12:24,10 Mar 2018 12:20,6eabc844-a028-48e9-ac81-da25fc966abf,Limit Sell,Filled,Closed,ETH,0.01010000,0.00000000,AUD,975.98,,9.85,0.04,0.50 %,0.00,9.80
10 Mar 2018 12:01,10 Mar 2018 12:00,3c742368-ae59-4985-9272-50431e7bda62,Limit Sell,Filled,Closed,ETH,0.01270000,0.00000000,AUD,979.99,,12.44,0.05,0.50 %,0.00,12.38
10 Mar 2018 11:55,10 Mar 2018 11:50,77a9a90b-bad2-45f7-8b10-f8e15f8ce92d,Limit Sell,Filled,Closed,ETH,0.01580000,0.00000000,AUD,979.78,,15.48,0.07,0.50 %,0.00,15.40
10 Mar 2018 11:28,10 Mar 2018 11:20,1a3cc98d-1b36-4348-8f6d-cf3b339fd991,Limit Sell,Filled,Closed,ETH,0.01980000,0.00000000,AUD,961.99,,19.04,0.08,0.50 %,0.00,18.95
10 Mar 2018 10:44,10 Mar 2018 10:44,ab8459e0-7306-411b-844a-53fb1a8941f5,Limit Sell,Filled,Closed,ETH,0.02470000,0.00000000,AUD,968.97,,23.93,0.10,0.50 %,0.01,23.81
10 Mar 2018 10:43,10 Mar 2018 10:43,63847daf-856b-4c63-85b9-229fbc49fdc5,Limit Sell,Filled,Closed,ETH,0.03090000,0.00000000,AUD,968.98,,29.94,0.13,0.50 %,0.01,29.79
10 Mar 2018 10:41,10 Mar 2018 10:40,459d2e98-2fee-4e9a-b92d-92b936aab448,Limit Sell,Filled,Closed,ETH,0.03860000,0.00000000,AUD,961.78,,37.12,0.16,0.50 %,0.01,36.93
10 Mar 2018 10:11,10 Mar 2018 09:51,ea2fc3bb-9bd4-44b6-ac01-273965f518eb,Limit Sell,Filled,Closed,ETH,0.06440000,0.00000000,AUD,956.76,,61.61,0.28,0.50 %,0.02,61.30
10 Mar 2018 10:37,10 Mar 2018 09:48,9e6f713f-2321-433b-bdb4-0855dfd88d53,Limit Sell,Filled,Closed,ETH,0.06440000,0.00000000,AUD,956.97,,61.62,0.28,0.50 %,0.02,61.32
10 Mar 2018 09:48,10 Mar 2018 09:47,03124aab-8b81-46bf-a374-d932b6477d89,Limit Buy,Filled,Closed,ETH,0.17530000,0.00000000,AUD,932.11,,163.39,0.74,0.50 %,0.07,164.21
10 Mar 2018 09:48,10 Mar 2018 09:36,8cb18a5f-d0a0-4ebe-9e26-34154c8d60a6,Limit Buy,Filled,Closed,ETH,0.14670000,0.00000000,AUD,920.64,,135.05,0.61,0.50 %,0.06,135.73
10 Mar 2018 09:36,10 Mar 2018 09:36,d47ef3b7-2080-4c00-b6e4-17573f7fed92,Limit Sell,Filled,Closed,ETH,0.07590000,0.00000000,AUD,940.41,,71.37,0.32,0.50 %,0.03,71.02
10 Mar 2018 09:47,10 Mar 2018 09:35,bd69e244-7f4c-49cb-8ffe-5142b3eeedaa,Limit Sell,Filled,Closed,ETH,0.07590000,0.00000000,AUD,947.94,,71.94,0.32,0.50 %,0.03,71.58
10 Mar 2018 09:47,10 Mar 2018 09:29,a51f4698-25ab-41ab-96a2-b7477d4471ae,Limit Sell,Filled,Closed,ETH,0.07590000,0.00000000,AUD,947.95,,71.94,0.32,0.50 %,0.03,71.58
10 Mar 2018 09:47,10 Mar 2018 09:29,9de380a8-7dbb-48b7-b103-d8e42f065d7e,Limit Sell,Filled,Closed,ETH,0.07590000,0.00000000,AUD,947.96,,71.95,0.32,0.50 %,0.03,71.59
10 Mar 2018 09:36,10 Mar 2018 09:20,6e37d8e5-7317-4091-8d83-38ccfe7bb609,Limit Sell,Filled,Closed,ETH,0.07590000,0.00000000,AUD,940.42,,71.37,0.32,0.50 %,0.03,71.02
10 Mar 2018 09:14,10 Mar 2018 09:11,05b45ddf-5182-44d2-88aa-c03a9b829bed,Limit Sell,Filled,Closed,ETH,0.09480000,0.00000000,AUD,933.49,,88.49,0.40,0.50 %,0.04,88.05
10 Mar 2018 05:15,10 Mar 2018 05:10,29f3a8f5-4cb4-4fa9-a4ae-3732c6398093,Limit Buy,Filled,Closed,ETH,0.16450000,0.00000000,AUD,893.02,,146.90,0.66,0.50 %,0.06,147.63
9 Mar 2018 23:44,9 Mar 2018 23:40,5e564a1b-4bea-4666-a26b-671c48aeaef5,Limit Sell,Filled,Closed,ETH,0.07740000,0.00000000,AUD,905.64,,70.09,0.31,0.50 %,0.03,69.74
9 Mar 2018 23:22,9 Mar 2018 23:20,bc597882-caf7-4304-af57-29872ca48dcc,Limit Sell,Filled,Closed,ETH,0.09680000,0.00000000,AUD,908.69,,87.96,0.39,0.50 %,0.03,87.52
9 Mar 2018 20:28,9 Mar 2018 20:10,5c062894-ec40-411b-b665-d837262094e4,Limit Sell,Filled,Closed,ETH,0.12100000,0.00000000,AUD,872.96,,105.62,0.48,0.50 %,0.04,105.10
9 Mar 2018 19:57,9 Mar 2018 19:51,7b5f4b99-b89c-4e69-ad06-8cb02c50bd45,Limit Sell,Filled,Closed,ETH,0.15120000,0.00000000,AUD,863.89,,130.62,0.59,0.50 %,0.05,129.96
9 Mar 2018 18:55,9 Mar 2018 18:50,2101b4bf-ef66-4096-b2a2-dc9691353e75,Limit Buy,Filled,Closed,ETH,0.09750000,0.00000000,AUD,878.33,,85.63,0.38,0.50 %,0.03,86.06
9 Mar 2018 18:21,9 Mar 2018 18:20,8dad018b-451c-4e76-812a-2e188396f4b7,Limit Sell,Filled,Closed,ETH,0.16460000,0.00000000,AUD,879.99,,144.84,0.65,0.50 %,0.06,144.12
9 Mar 2018 16:10,9 Mar 2018 16:10,8a5e5d64-ebba-4a71-84d5-2ca2be072173,Limit Sell,Partially Filled and Cancelled,Closed,ETH,0.16960000,0.14460000,AUD,845.99,,21.14,0.09,0.50 %,0.00,21.04
9 Mar 2018 16:05,9 Mar 2018 16:00,5a8465dc-0a17-47b8-a46a-58b6fb454926,Limit Buy,Filled,Closed,ETH,0.07840000,0.00000000,AUD,840.03,,65.85,0.29,0.50 %,0.02,66.18
9 Mar 2018 14:07,9 Mar 2018 14:00,87f88a72-ffdc-4935-bc93-77b6121a002c,Limit Buy,Filled,Closed,ETH,0.09360000,0.00000000,AUD,881.28,,82.48,0.37,0.50 %,0.03,82.90
9 Mar 2018 13:28,9 Mar 2018 13:20,a835da46-b41b-4d4d-8580-561f5f9ac7e4,Limit Sell,Filled,Closed,ETH,0.16910000,0.00000000,AUD,894.92,,151.33,0.68,0.50 %,0.06,150.57
9 Mar 2018 12:21,9 Mar 2018 12:20,ca755af5-c5d0-4c33-8d18-51f97e0fccb0,Limit Buy,Filled,Closed,ETH,0.07530000,0.00000000,AUD,870.45,,65.54,0.29,0.50 %,0.02,65.87
9 Mar 2018 12:07,9 Mar 2018 12:00,836f3f72-17e2-48b4-956d-3a96785b2119,Limit Buy,Filled,Closed,ETH,0.09260000,0.00000000,AUD,885.22,,81.97,0.37,0.50 %,0.03,82.38
9 Mar 2018 11:45,9 Mar 2018 11:40,7de7dfbb-f123-4ebc-beae-a1b3a157cc8e,Limit Buy,Filled,Closed,ETH,0.11440000,0.00000000,AUD,897.05,,102.62,0.46,0.50 %,0.04,103.13
9 Mar 2018 09:15,9 Mar 2018 09:10,9bea322b-f4ee-4528-950e-fe18d2954779,Limit Buy,Filled,Closed,ETH,0.14280000,0.00000000,AUD,899.09,,128.39,0.58,0.50 %,0.05,129.03
9 Mar 2018 08:52,9 Mar 2018 08:50,fdf892a2-77ec-4941-ad1d-f63f74ea6bd4,Limit Sell,Filled,Closed,ETH,0.10510000,0.00000000,AUD,914.99,,96.16,0.43,0.50 %,0.04,95.68
9 Mar 2018 07:49,9 Mar 2018 07:42,164d7368-0037-4a00-97f3-09ddd17bcd9b,Limit Buy,Filled,Closed,ETH,0.14950000,0.00000000,AUD,914.81,,136.76,0.62,0.50 %,0.06,137.44
9 Mar 2018 06:41,9 Mar 2018 06:40,c6ad2d67-ec1b-4b4e-8483-ab4a5244b676,Limit Sell,Filled,Closed,ETH,0.09400000,0.00000000,AUD,934.99,,87.88,0.39,0.50 %,0.03,87.44
9 Mar 2018 06:39,9 Mar 2018 06:30,f7c67b7a-0bf0-4579-b200-bfe356927391,Limit Sell,Filled,Closed,ETH,0.11740000,0.00000000,AUD,934.99,,109.76,0.49,0.50 %,0.04,109.21
9 Mar 2018 06:23,9 Mar 2018 06:20,c1bfba2f-4be7-474f-9a12-e058b5f6a18e,Limit Sell,Partially Filled and Cancelled,Closed,ETH,0.13870000,0.03227403,AUD,934.99,,99.50,0.45,0.50 %,0.04,99.00
9 Mar 2018 05:42,9 Mar 2018 05:40,542007d8-f73c-47c7-bbe1-51fb69220f02,Limit Buy,Filled,Closed,ETH,0.10560000,0.00000000,AUD,920.02,,97.15,0.44,0.50 %,0.04,97.63
9 Mar 2018 04:55,9 Mar 2018 04:50,02d03793-fdcf-46c3-a1ff-e3f5365ba41c,Limit Sell,Filled,Closed,ETH,0.14700000,0.00000000,AUD,953.02,,140.09,0.63,0.50 %,0.06,139.39
8 Mar 2018 22:27,8 Mar 2018 22:20,468d3ca5-b718-4ca2-810c-9f422a014cd3,Limit Buy,Filled,Closed,ETH,0.11780000,0.00000000,AUD,983.28,,115.83,0.52,0.50 %,0.05,116.40
8 Mar 2018 22:27,8 Mar 2018 22:20,f2f2b13a-0896-4721-92b8-a42430df4705,Limit Buy,Filled,Closed,ETH,0.11780000,0.00000000,AUD,983.13,,115.81,0.52,0.50 %,0.05,116.39
8 Mar 2018 21:09,8 Mar 2018 21:00,56eb39fe-f2a1-41a0-a32b-5e46eaff696e,Limit Buy,Filled,Closed,ETH,0.14630000,0.00000000,AUD,991.01,,144.98,0.65,0.50 %,0.06,145.70
8 Mar 2018 16:32,8 Mar 2018 16:31,1b8c2491-6928-495e-80ea-f2826a88afbf,Limit Sell,Filled,Closed,ETH,0.08830000,0.00000000,AUD,979.88,,86.52,0.39,0.50 %,0.03,86.09
8 Mar 2018 14:03,8 Mar 2018 14:01,c4cbb815-c002-4006-ae85-3948c12dfc67,Limit Sell,Filled,Closed,ETH,0.11030000,0.00000000,AUD,963.69,,106.29,0.48,0.50 %,0.04,105.76
8 Mar 2018 12:55,8 Mar 2018 12:51,77f08e9e-eb65-4a07-90de-93aeadc944f8,Limit Buy,Filled,Closed,ETH,0.13940000,0.00000000,AUD,957.25,,133.44,0.60,0.50 %,0.06,134.10
8 Mar 2018 11:51,8 Mar 2018 11:50,a67d7fb8-e3d5-42aa-89f1-348c4e06ef08,Limit Sell,Partially Filled and Cancelled,Closed,ETH,0.10250000,0.00250000,AUD,988.77,,98.87,0.44,0.50 %,0.04,98.38
8 Mar 2018 08:57,8 Mar 2018 08:51,31a9c85e-afb3-46c4-9b96-e3dda63c0f90,Limit Buy,Filled,Closed,ETH,0.14520000,0.00000000,AUD,980.38,,142.35,0.64,0.50 %,0.06,143.06
8 Mar 2018 08:38,8 Mar 2018 08:30,51ab42e4-9c2a-4c3a-ae3b-29435e6fbe26,Limit Buy,Filled,Closed,ETH,0.17980000,0.00000000,AUD,990.81,,178.14,0.80,0.50 %,0.08,179.03
8 Mar 2018 08:28,8 Mar 2018 08:22,cccd55e6-ebbb-41e2-8875-accbd3295337,Limit Sell,Filled,Closed,ETH,0.04680000,0.00000000,AUD,1008.96,,47.21,0.21,0.50 %,0.02,46.98
8 Mar 2018 08:12,8 Mar 2018 08:11,80d8fc92-e4f3-4399-9eb4-5fb31b19e6ef,Limit Sell,Filled,Closed,ETH,0.05850000,0.00000000,AUD,999.88,,58.49,0.26,0.50 %,0.02,58.20
8 Mar 2018 07:54,8 Mar 2018 07:50,eea07e29-2ea5-46b6-a150-af314f046683,Limit Sell,Filled,Closed,ETH,0.07320000,0.00000000,AUD,986.52,,72.21,0.32,0.50 %,0.03,71.85
8 Mar 2018 07:38,8 Mar 2018 07:30,83b16890-7141-40bc-bad8-6356555d5acf,Limit Sell,Filled,Closed,ETH,0.09150000,0.00000000,AUD,989.77,,90.56,0.41,0.50 %,0.04,90.11
8 Mar 2018 07:07,8 Mar 2018 07:00,ef8503a0-7a5a-4e68-aeee-f18e4b288a5a,Limit Sell,Filled,Closed,ETH,0.11430000,0.00000000,AUD,971.39,,111.02,0.50,0.50 %,0.05,110.47
8 Mar 2018 05:58,8 Mar 2018 05:50,a1072ea1-5852-404d-b971-a7ea7dc4f245,Limit Sell,Partially Filled and Cancelled,Closed,ETH,0.13430000,0.03430000,AUD,966.01,,96.60,0.43,0.50 %,0.04,96.11
8 Mar 2018 05:44,8 Mar 2018 05:40,f8c2515a-cace-4eaa-8ed2-4b6588737e95,Limit Sell,Filled,Closed,ETH,0.16790000,0.00000000,AUD,966.89,,162.34,0.73,0.50 %,0.07,161.52
8 Mar 2018 02:40,8 Mar 2018 02:40,31548887-043a-4697-a7af-ac2af26f982f,Limit Sell,Filled,Closed,ETH,0.20990000,0.00000000,AUD,999.86,,209.87,0.95,0.50 %,0.09,208.82
7 Mar 2018 16:34,7 Mar 2018 16:30,d4c770b3-761b-42f1-80aa-7143e6a0ab9c,Limit Buy,Filled,Closed,ETH,0.01160000,0.00000000,AUD,1013.01,,11.75,0.05,0.50 %,0.00,11.80
7 Mar 2018 15:36,7 Mar 2018 15:30,f48e15b9-2a04-4b5d-b023-14364d4ed892,Limit Buy,Filled,Closed,ETH,0.01420000,0.00000000,AUD,1034.84,,14.69,0.06,0.50 %,0.00,14.76
7 Mar 2018 13:32,7 Mar 2018 13:30,24e39c1a-48f1-4984-a8a5-172c2f699433,Limit Buy,Filled,Closed,ETH,0.01770000,0.00000000,AUD,1040.34,,18.41,0.08,0.50 %,0.00,18.50
7 Mar 2018 10:05,7 Mar 2018 10:00,0d4ea258-e92e-4d10-b7b3-4b0588e849ba,Limit Buy,Filled,Closed,ETH,0.02210000,0.00000000,AUD,1043.08,,23.05,0.10,0.50 %,0.01,23.16
7 Mar 2018 09:51,7 Mar 2018 09:50,48328582-5d73-40ae-ac68-b60e4f1a2cb9,Limit Buy,Filled,Closed,ETH,0.02760000,0.00000000,AUD,1042.77,,28.78,0.13,0.50 %,0.01,28.92
7 Mar 2018 09:41,7 Mar 2018 09:40,9448b2a3-8c37-4f65-94f5-25fb4a26e6b1,Limit Buy,Filled,Closed,ETH,0.03460000,0.00000000,AUD,1040.23,,35.99,0.16,0.50 %,0.01,36.17
6 Mar 2018 21:42,6 Mar 2018 21:41,931437b1-dd06-4a87-9fba-f6539ef43e81,Limit Buy,Filled,Closed,ETH,0.04230000,0.00000000,AUD,1065.01,,45.04,0.20,0.50 %,0.02,45.27
6 Mar 2018 21:34,6 Mar 2018 21:30,f86dcfe6-d5a4-44ee-b264-69ad2758f1ff,Limit Buy,Filled,Closed,ETH,0.05300000,0.00000000,AUD,1064.35,,56.41,0.25,0.50 %,0.02,56.69
6 Mar 2018 10:06,6 Mar 2018 10:03,90c5a475-0405-46ff-82fb-9321a9cb8bb1,Limit Sell,Filled,Closed,ETH,0.20660000,0.00000000,AUD,1114.91,,230.34,1.04,0.50 %,0.10,229.18
5 Mar 2018 12:50,5 Mar 2018 12:50,36365e2d-b801-4730-9853-8e01d6a8b030,Limit Buy,Filled,Closed,ETH,0.01200000,0.00000000,AUD,1108.51,,13.30,0.06,0.50 %,0.00,13.36
5 Mar 2018 11:07,5 Mar 2018 11:05,c8cf26f3-87dd-4fee-a493-9fd41aa27437,Limit Buy,Filled,Closed,ETH,0.01500000,0.00000000,AUD,1107.12,,16.60,0.07,0.50 %,0.00,16.68
5 Mar 2018 11:05,5 Mar 2018 11:00,a19e3a33-926d-4e09-8159-e7da2a427f84,Limit Buy,Filled,Closed,ETH,0.01870000,0.00000000,AUD,1108.01,,20.71,0.09,0.50 %,0.00,20.82
5 Mar 2018 10:55,5 Mar 2018 10:50,b65ca9de-9012-44e3-b647-551ae8b81e64,Limit Buy,Filled,Closed,ETH,0.02350000,0.00000000,AUD,1108.01,,26.03,0.11,0.50 %,0.01,26.16
5 Mar 2018 10:34,5 Mar 2018 10:30,cc938d77-51cc-4372-a677-04c8f397418d,Limit Buy,Filled,Closed,ETH,0.02940000,0.00000000,AUD,1108.01,,32.57,0.14,0.50 %,0.01,32.73
5 Mar 2018 09:12,5 Mar 2018 09:01,101a28b0-bcf8-47d7-a708-985e081aaf03,Limit Buy,Filled,Closed,ETH,0.03680000,0.00000000,AUD,1107.12,,40.74,0.18,0.50 %,0.01,40.94
5 Mar 2018 07:20,5 Mar 2018 07:20,6d318015-051f-449e-b11c-ae03ede4dbab,Limit Buy,Filled,Closed,ETH,0.04590000,0.00000000,AUD,1110.01,,50.94,0.23,0.50 %,0.02,51.20
5 Mar 2018 04:28,5 Mar 2018 04:20,8f4742e8-d347-4a6c-aac4-280f1d48a39f,Limit Buy,Partially Filled and Cancelled,Closed,ETH,0.04650000,0.04396450,AUD,1108.01,,2.80,0.01,0.50 %,0.00,2.82
5 Mar 2018 02:32,5 Mar 2018 02:30,105cc6fe-d576-4e73-ac2e-0a2dea63b05c,Limit Buy,Filled,Closed,ETH,0.05830000,0.00000000,AUD,1105.95,,64.47,0.29,0.50 %,0.02,64.79
3 Mar 2018 22:12,3 Mar 2018 22:10,27d85b8e-5417-4151-8c82-527613999e2e,Limit Buy,Filled,Closed,ETH,0.07240000,0.00000000,AUD,1115.53,,80.76,0.36,0.50 %,0.03,81.16
3 Mar 2018 21:15,3 Mar 2018 21:10,e35ebf18-568e-4768-aab9-5a1f300ebd2e,Limit Buy,Filled,Closed,ETH,0.09050000,0.00000000,AUD,1116.01,,100.99,0.45,0.50 %,0.04,101.50
3 Mar 2018 19:26,3 Mar 2018 19:25,204fdf77-4ddb-45e6-ba98-29a6ab05404d,Limit Buy,Filled,Closed,ETH,0.11330000,0.00000000,AUD,1115.53,,126.38,0.57,0.50 %,0.05,127.02
3 Mar 2018 09:21,3 Mar 2018 09:20,c7b73764-7c52-4620-9c00-92b279c312d8,Limit Buy,Filled,Closed,ETH,0.14240000,0.00000000,AUD,1111.33,,158.25,0.71,0.50 %,0.07,159.04
2 Mar 2018 11:10,2 Mar 2018 11:10,0739656a-5c88-438f-a9e4-c002ce4ef047,Limit Sell,Filled,Closed,ETH,0.09310000,0.00000000,AUD,1139.96,,106.13,0.48,0.50 %,0.04,105.59
2 Mar 2018 11:01,2 Mar 2018 11:00,5472bb70-ae69-41b7-a10f-b04071ee38d2,Limit Sell,Filled,Closed,ETH,0.11630000,0.00000000,AUD,1139.98,,132.57,0.60,0.50 %,0.06,131.91
2 Mar 2018 10:34,2 Mar 2018 10:30,ee91c268-0e53-4acc-90e1-86b1aca6804f,Limit Buy,Filled,Closed,ETH,0.12300000,0.00000000,AUD,1126.76,,138.59,0.62,0.50 %,0.06,139.28
2 Mar 2018 09:54,2 Mar 2018 09:50,3f250b03-ce39-475b-a0ac-5a7896f17281,Limit Sell,Filled,Closed,ETH,0.11470000,0.00000000,AUD,1142.12,,131.00,0.59,0.50 %,0.05,130.34
2 Mar 2018 09:34,2 Mar 2018 09:30,8065ba70-29da-44df-a318-bf2e3c5ad849,Limit Sell,Filled,Closed,ETH,0.14330000,0.00000000,AUD,1143.37,,163.84,0.74,0.50 %,0.07,163.02
2 Mar 2018 09:10,2 Mar 2018 09:10,3d9b9433-69db-4eaa-9704-cb2aa15185ef,Limit Sell,Partially Filled and Cancelled,Closed,ETH,0.15380000,0.10137240,AUD,1139.12,,59.72,0.27,0.50 %,0.02,59.42
2 Mar 2018 08:16,2 Mar 2018 08:10,704c6a82-00e6-4f1d-8918-4b1ed12d96c7,Limit Sell,Filled,Closed,ETH,0.19230000,0.00000000,AUD,1136.64,,218.57,0.99,0.50 %,0.09,217.48
2 Mar 2018 06:18,2 Mar 2018 06:10,fa6d9344-08ea-4420-b7ff-7e15dd9d9546,Limit Buy,Filled,Closed,ETH,0.02730000,0.00000000,AUD,1124.01,,30.68,0.13,0.50 %,0.01,30.83